%YAML 1.1
%TAG !u! tag:unity3d.com,2011:
--- !u!1045 &1
EditorBuildSettings:
  m_ObjectHideFlags: 0
  serializedVersion: 2
  m_Scenes:
  - enabled: 1
    path: Assets/Levels/Level_1.unity
    guid: 5b2248bc4f23cdb48ac50076795199f2
  - enabled: 1
    path: Assets/Levels/Level_2.unity
    guid: d5896489049bf934596b681eee95d901
  - enabled: 1
    path: Assets/Levels/Level_3.unity
    guid: 9a19f67769c295f4a8400a0bd5e90665
  - enabled: 1
    path: Assets/Levels/Level_4.unity
    guid: ed5cd320e7d9aeb4ca99e96070a2411f
  - enabled: 1
    path: Assets/Levels/Level_5.unity
    guid: 6941ec09bd7b5f24494c0ebbacfc8d7a
